Calculate constructs frequently used in social sciences research while leveraging [tidycensus::get_acs()] to acquire raw estimates from the Census Bureau API. — compile_acs_data • urbnindicators
…
acs_variables = list_acs_variables(year = "2022")
compile_acs_data(
  variables = acs_variables,
  years = c(2021, 2022),
  geography = "county",
  states = "NJ",
  counties = NULL,
  retain_moes = TRUE)
#> Warning: Variable names and geographies for ACS data products can change between years.
#> Changes to geographies are particularly significant across decades (e.g., from 2019 to 2020), but these changes can occur in any year.
#> Users should ensure that the logic embedded in this function--which was developed around five-year ACS estimates for 2017-2021--remains accurate for their use cases.
#> Evaluation of measures and geographies over time should be thoroughly quality checked.
#> Getting data from the 2017-2021 5-year ACS
#> Getting data from the 2018-2022 5-year ACS
#> # A tibble: 42 × 1,326
#>    GEOID NAME                      total_population_uni…¹ public_assistance_un…²
#>    <chr> <chr>                                      <dbl>                  <dbl>
#>  1 34001 Atlantic County, New Jer…                 273865                 105277
#>  2 34003 Bergen County, New Jersey                 952979                 348674
#>  3 34005 Burlington County, New J…                 460102                 172400
#>  4 34007 Camden County, New Jersey                 521194                 196939
#>  5 34009 Cape May County, New Jer…                  95488                  41971
#>  6 34011 Cumberland County, New J…                 154921                  51873
#>  7 34013 Essex County, New Jersey                  852720                 307613
#>  8 34015 Gloucester County, New J…                 300821                 109290
#>  9 34017 Hudson County, New Jersey                 713264                 282832
#> 10 34019 Hunterdon County, New Je…                 128807                  48975
#> # ℹ 32 more rows
#> # ℹ abbreviated names: ¹​total_population_universe, ²​public_assistance_universe
#> # ℹ 1,322 more variables: public_assistance_received <dbl>,
#> #   snap_universe <dbl>, snap_received <dbl>,
#> #   household_income_quintile_upper_limit_1 <dbl>,
#> #   household_income_quintile_upper_limit_2 <dbl>,
#> #   household_income_quintile_upper_limit_3 <dbl>, …
…
