urbnindicators • urbnindicators
…
The primary differences between urbnindicators and
tidycensus outputs are that returned columns have
descriptive names (e.g.,
sex_by_age_by_disability_status_female_75_years_over_with_a_disability),
and–importantly–that derived variables are included:

df_urbnindicators %>%
  dplyr::select(GEOID, matches("disability.*percent"))
#> # A tibble: 21 × 2
#>    GEOID disability_percent
#>    <chr>              <dbl>
#>  1 34001             0.142 
#>  2 34003             0.0831
#>  3 34005             0.116 
#>  4 34007             0.145 
#>  5 34009             0.150 
#>  6 34011             0.148 
#>  7 34013             0.117 
#>  8 34015             0.127 
#>  9 34017             0.0865
#> 10 34019             0.0876
#> # ℹ 11 more rows
…
